…
``` r
# remove emptry string
expr = expr[rownames(expr) != "",]

# subset expression matrix to relevant samples
expr = expr[,meta$sample]

expr %>%
  data.frame(check.names = F) %>%
  rownames_to_column("gene") %>%
  as_tibble()
```

    ## # A tibble: 16,305 x 6
    ##    gene          GSM475303 GSM475304 GSM475305 GSM475306 GSM475307
    ##    <chr>             <dbl>     <dbl>     <dbl>     <dbl>     <dbl>
    ##  1 Nppa               5.57      5.96      5.75      5.66      5.72
    ##  2 Aqp7               5.29      5.09      5.81      5.39      4.87
    ##  3 Gm12689            5.44      5.69      5.20      5.37      6.67
    ##  4 Hvcn1              8.80      8.22      8.33      8.97      8.43
    ##  5 A330106F07Rik      5.27      5.40      5.54      5.23      5.63
    ##  6 Ptdss2             9.16      9.06      9.28     10.7      10.3 
    ##  7 Itfg1              8.24      8.54      8.45      8.82      8.86
    ##  8 Elmo1              7.39      7.16      7.03      7.10      7.05
    ##  9 Crtac1             7.84      8.27      8.03      7.36      8.02
    ## 10 Pnpt1             11.5      10.7      10.7      10.4       9.58
    ## # … with 16,295 more rows
…
degs = limma_result %>%
  mutate(regulation = case_when(
    logFC >= effect_size_cutoff & fdr <= fdr_cutoff ~ "up",
    logFC <= -effect_size_cutoff & fdr <= fdr_cutoff ~ "down",
    TRUE ~ "ns")
    ) %>%
  mutate(regulation = factor(regulation, levels = c("up", "down", "ns"))) %>%
  arrange(pval)
```

These are the top differentially expressed genes:

    ## # A tibble: 16,305 x 7
    ##    gene   contrast     logFC statistic         pval      fdr regulation
    ##    <chr>  <fct>        <dbl>     <dbl>        <dbl>    <dbl> <fct>     
    ##  1 Tead4  salm_vs_ctrl  5.62      40.7 0.0000000125 0.000179 up        
    ##  2 Sprr2h salm_vs_ctrl  8.99      37.1 0.0000000220 0.000179 up        
    ##  3 Il33   salm_vs_ctrl  6.05      31.4 0.0000000597 0.000212 up        
    ##  4 Edn2   salm_vs_ctrl -4.35     -29.3 0.0000000904 0.000212 down      
    ##  5 Hdc    salm_vs_ctrl  6.70      29.2 0.0000000925 0.000212 up        
    ##  6 Pbld1  salm_vs_ctrl -4.06     -27.8 0.000000124  0.000212 down      
    ##  7 Lcn2   salm_vs_ctrl  4.19      27.6 0.000000130  0.000212 up        
    ##  8 Ephx3  salm_vs_ctrl  6.64      27.4 0.000000137  0.000212 up        
    ##  9 Cxcl9  salm_vs_ctrl  8.45      27.0 0.000000148  0.000212 up        
    ## 10 Iigp1  salm_vs_ctrl  7.20      26.7 0.000000160  0.000212 up        
    ## # … with 16,295 more rows
…
## Plot of Hif1a activity

These are the most deregulated TFs upon Salmonella infection (ranked by
nominal p-value).

``` r
tf_scores_c
```

    ## # A tibble: 110 x 5
    ##    tf      nes     pval      fdr  rank
    ##    <chr> <dbl>    <dbl>    <dbl> <int>
    ##  1 Spi1  10.1  5.86e-24 6.45e-22     1
    ##  2 Stat1  9.09 1.02e-19 5.59e-18     2
    ##  3 Stat3  8.21 2.22e-16 8.16e-15     3
    ##  4 Nfkb1  8.07 7.27e-16 2.00e-14     4
    ##  5 Jun    7.97 1.60e-15 3.52e-14     5
    ##  6 Rela   7.77 7.88e-15 1.45e-13     6
    ##  7 Fos    6.20 5.47e-10 8.60e- 9     7
    ##  8 Rel    5.93 3.01e- 9 4.14e- 8     8
    ##  9 Cebpd  5.59 2.32e- 8 2.83e- 7     9
    ## 10 Ets1   5.55 2.87e- 8 3.16e- 7    10
    ## # … with 100 more rows
…
